# Blender MTL File: 'MedKit_mk2.blend'
# Material Count: 1

newmtl Material
Ns 96.078431
Ka 1.000000 1.000000 1.000000
Kd 0.640000 0.640000 0.640000
Ks 0.000000 0.000000 0.000000
Ke 0.000000 0.000000 0.000000
Ni 1.000000
d 1.000000
illum 1
map_Kd C:\Users\devar\Downloads\Medkit_Albedo_Final.png
map_Bump -bm 0.300000 C:\\Users\\devar\\Downloads\\CrateandHealth\\HealthPickup_Normal.jpg
